<?xml version="1.0" encoding="utf-8"?>
<!-- Generator: Adobe Illustrator 22.1.0, SVG Export Plug-In . SVG Version: 6.00 Build 0)  -->
<svg version="1.1" id="Layer_1" xmlns="http://www.w3.org/2000/svg" xmlns:xlink="http://www.w3.org/1999/xlink" x="0px" y="0px"
	 viewBox="0 0 215 212" style="enable-background:new 0 0 215 212;" xml:space="preserve">
<style type="text/css">
	.st0{fill:#004466;}
	.st1{fill:url(#SVGID_1_);}
	.st2{fill:#FFFFFF;}
</style>
<g>
	<linearGradient id="SVGID_1_" gradientUnits="userSpaceOnUse" x1="32.3213" y1="184.7329" x2="177.8385" y2="32.3361">
		<stop  offset="0" style="stop-color:#08AEEA"/>
		<stop  offset="1" style="stop-color:#2AF598"/>
	</linearGradient>
	<circle class="st1" cx="107.5" cy="106" r="105.4"/>
	<path class="st2" d="M141.9,113.7V134c3.3,1.2,5.6,4.4,5.6,8.1c0,4.8-3.9,8.7-8.7,8.7c-2.1,0-4-0.8-5.5-2l-17.3,10
		c0.1,0.5,0.1,0.9,0.1,1.4c0,4.8-3.9,8.7-8.7,8.7c-4.8,0-8.7-3.9-8.7-8.7c0-0.5,0-1,0.1-1.4l-17.4-10c-1.5,1.3-3.4,2-5.5,2
		c-4.8,0-8.7-3.9-8.7-8.7c0-4.8,3.9-8.7,8.7-8.7c4.8,0,8.7,3.9,8.7,8.7c0,0.5,0,1-0.1,1.4l17.4,10c1.5-1.3,3.4-2,5.5-2
		c2.1,0,4,0.7,5.5,2l17.3-10c-0.1-0.5-0.1-0.9-0.1-1.4c0-3.7,2.4-6.9,5.6-8.1v-20.3c-3.3-1.2-5.6-4.4-5.6-8.1c0-0.5,0-0.9,0.1-1.4
		l-17.2-9.7c-1.5,1.3-3.5,2-5.6,2c-4.8,0-8.7-3.9-8.7-8.7c0-4.8,3.9-8.7,8.7-8.7c4.8,0,8.7,3.9,8.7,8.7c0,0.5,0,0.9-0.1,1.4
		l17.2,9.7c1.5-1.3,3.5-2,5.6-2c4.8,0,8.7,3.9,8.7,8.7C147.6,109.3,145.2,112.5,141.9,113.7z M67.4,106.4c0,4.8,3.9,8.7,8.7,8.7
		c2.1,0,4.1-0.8,5.6-2l17.2,9.7c-0.1,0.4-0.1,0.9-0.1,1.4c0,4.8,3.9,8.7,8.7,8.7c4.8,0,8.7-3.9,8.7-8.7c0-4.8-3.9-8.7-8.7-8.7
		c-2.1,0-4.1,0.8-5.6,2l-17.2-9.7c0.1-0.4,0.1-0.9,0.1-1.4c0-3.7-2.4-6.9-5.6-8.1V78c3.3-1.2,5.6-4.4,5.6-8.1c0-0.5-0.1-1-0.1-1.4
		l17.3-10c1.5,1.2,3.4,2,5.5,2c2.1,0,4-0.8,5.5-2l17.4,10c-0.1,0.5-0.1,0.9-0.1,1.4c0,4.8,3.9,8.7,8.7,8.7c4.8,0,8.7-3.9,8.7-8.7
		c0-4.8-3.9-8.7-8.7-8.7c-2.1,0-4,0.8-5.5,2l-17.4-10c0.1-0.5,0.1-0.9,0.1-1.4c0-4.8-3.9-8.7-8.7-8.7c-4.8,0-8.7,3.9-8.7,8.7
		c0,0.5,0.1,1,0.1,1.4l-17.3,10c-1.5-1.2-3.4-2-5.5-2c-4.8,0-8.7,3.9-8.7,8.7c0,3.7,2.4,6.9,5.6,8.1v20.3
		C69.8,99.5,67.4,102.7,67.4,106.4z"/>
</g>
</svg>
